^C:\USERS\ROSS\DOCUMENTS\CGAD\YEAR2\GRAPHICS PROGRAMMING\SEMESTER2\COURSEWORK\GP-COURSEWORK-WIP\GP\DEBUG\AMBIENT_LIGHT.OBJ|C:\USERS\ROSS\DOCUMENTS\CGAD\YEAR2\GRAPHICS PROGRAMMING\SEMESTER2\COURSEWORK\GP-COURSEWORK-WIP\GP\DEBUG\CAMERA.OBJ|C:\USERS\ROSS\DOCUMENTS\CGAD\YEAR2\GRAPHICS PROGRAMMING\SEMESTER2\COURSEWORK\GP-COURSEWORK-WIP\GP\DEBUG\CAMERA_CONTROLLER.OBJ|C:\USERS\ROSS\DOCUMENTS\CGAD\YEAR2\GRAPHICS PROGRAMMING\SEMESTER2\COURSEWORK\GP-COURSEWORK-WIP\GP\DEBUG\CAMERA_CONTROLLER_SECURITY.OBJ|C:\USERS\ROSS\DOCUMENTS\CGAD\YEAR2\GRAPHICS PROGRAMMING\SEMESTER2\COURSEWORK\GP-COURSEWORK-WIP\GP\DEBUG\CAMERA_CONTROLLER_USER.OBJ|C:\USERS\ROSS\DOCUMENTS\CGAD\YEAR2\GRAPHICS PROGRAMMING\SEMESTER2\COURSEWORK\GP-COURSEWORK-WIP\GP\DEBUG\DANCE_FLOOR.OBJ|C:\USERS\ROSS\DOCUMENTS\CGAD\YEAR2\GRAPHICS PROGRAMMING\SEMESTER2\COURSEWORK\GP-COURSEWORK-WIP\GP\DEBUG\DIRECTIONAL_LIGHT.OBJ|C:\USERS\ROSS\DOCUMENTS\CGAD\YEAR2\GRAPHICS PROGRAMMING\SEMESTER2\COURSEWORK\GP-COURSEWORK-WIP\GP\DEBUG\FRIDGE.OBJ|C:\USERS\ROSS\DOCUMENTS\CGAD\YEAR2\GRAPHICS PROGRAMMING\SEMESTER2\COURSEWORK\GP-COURSEWORK-WIP\GP\DEBUG\INPUT.OBJ|C:\USERS\ROSS\DOCUMENTS\CGAD\YEAR2\GRAPHICS PROGRAMMING\SEMESTER2\COURSEWORK\GP-COURSEWORK-WIP\GP\DEBUG\LIGHT.OBJ|C:\USERS\ROSS\DOCUMENTS\CGAD\YEAR2\GRAPHICS PROGRAMMING\SEMESTER2\COURSEWORK\GP-COURSEWORK-WIP\GP\DEBUG\LIGHT_MANAGER.OBJ|C:\USERS\ROSS\DOCUMENTS\CGAD\YEAR2\GRAPHICS PROGRAMMING\SEMESTER2\COURSEWORK\GP-COURSEWORK-WIP\GP\DEBUG\MAIN.OBJ|C:\USERS\ROSS\DOCUMENTS\CGAD\YEAR2\GRAPHICS PROGRAMMING\SEMESTER2\COURSEWORK\GP-COURSEWORK-WIP\GP\DEBUG\MATERIAL.OBJ|C:\USERS\ROSS\DOCUMENTS\CGAD\YEAR2\GRAPHICS PROGRAMMING\SEMESTER2\COURSEWORK\GP-COURSEWORK-WIP\GP\DEBUG\MATRIX44.OBJ|C:\USERS\ROSS\DOCUMENTS\CGAD\YEAR2\GRAPHICS PROGRAMMING\SEMESTER2\COURSEWORK\GP-COURSEWORK-WIP\GP\DEBUG\MIRRORED_SHELVES.OBJ|C:\USERS\ROSS\DOCUMENTS\CGAD\YEAR2\GRAPHICS PROGRAMMING\SEMESTER2\COURSEWORK\GP-COURSEWORK-WIP\GP\DEBUG\MODEL.OBJ|C:\USERS\ROSS\DOCUMENTS\CGAD\YEAR2\GRAPHICS PROGRAMMING\SEMESTER2\COURSEWORK\GP-COURSEWORK-WIP\GP\DEBUG\POINT_LIGHT.OBJ|C:\USERS\ROSS\DOCUMENTS\CGAD\YEAR2\GRAPHICS PROGRAMMING\SEMESTER2\COURSEWORK\GP-COURSEWORK-WIP\GP\DEBUG\SCENE_3D.OBJ|C:\USERS\ROSS\DOCUMENTS\CGAD\YEAR2\GRAPHICS PROGRAMMING\SEMESTER2\COURSEWORK\GP-COURSEWORK-WIP\GP\DEBUG\SHAPE.OBJ|C:\USERS\ROSS\DOCUMENTS\CGAD\YEAR2\GRAPHICS PROGRAMMING\SEMESTER2\COURSEWORK\GP-COURSEWORK-WIP\GP\DEBUG\SHAPE_DATA.OBJ|C:\USERS\ROSS\DOCUMENTS\CGAD\YEAR2\GRAPHICS PROGRAMMING\SEMESTER2\COURSEWORK\GP-COURSEWORK-WIP\GP\DEBUG\SHAPE_FACTORY.OBJ|C:\USERS\ROSS\DOCUMENTS\CGAD\YEAR2\GRAPHICS PROGRAMMING\SEMESTER2\COURSEWORK\GP-COURSEWORK-WIP\GP\DEBUG\SPOT_LIGHT.OBJ|C:\USERS\ROSS\DOCUMENTS\CGAD\YEAR2\GRAPHICS PROGRAMMING\SEMESTER2\COURSEWORK\GP-COURSEWORK-WIP\GP\DEBUG\TABLE.OBJ|C:\USERS\ROSS\DOCUMENTS\CGAD\YEAR2\GRAPHICS PROGRAMMING\SEMESTER2\COURSEWORK\GP-COURSEWORK-WIP\GP\DEBUG\TIMER.OBJ|C:\USERS\ROSS\DOCUMENTS\CGAD\YEAR2\GRAPHICS PROGRAMMING\SEMESTER2\COURSEWORK\GP-COURSEWORK-WIP\GP\DEBUG\TOKEN_STREAM.OBJ|C:\USERS\ROSS\DOCUMENTS\CGAD\YEAR2\GRAPHICS PROGRAMMING\SEMESTER2\COURSEWORK\GP-COURSEWORK-WIP\GP\DEBUG\TRANSFORM.OBJ|C:\USERS\ROSS\DOCUMENTS\CGAD\YEAR2\GRAPHICS PROGRAMMING\SEMESTER2\COURSEWORK\GP-COURSEWORK-WIP\GP\DEBUG\VECTOR3.OBJ|C:\USERS\ROSS\DOCUMENTS\CGAD\YEAR2\GRAPHICS PROGRAMMING\SEMESTER2\COURSEWORK\GP-COURSEWORK-WIP\GP\DEBUG\VECTOR4.OBJ|C:\USERS\ROSS\DOCUMENTS\CGAD\YEAR2\GRAPHICS PROGRAMMING\SEMESTER2\COURSEWORK\GP-COURSEWORK-WIP\GP\DEBUG\WALL_DECORATION.OBJ
C:\USERS\ROSS\DOCUMENTS\CGAD\YEAR2\GRAPHICS PROGRAMMING\SEMESTER2\COURSEWORK\GP-COURSEWORK-WIP\DEBUG\GP.ILK
C:\USERS\ROSS\DOCUMENTS\CGAD\YEAR2\GRAPHICS PROGRAMMING\SEMESTER2\COURSEWORK\GP-COURSEWORK-WIP\DEBUG\GP.EXE
C:\USERS\ROSS\DOCUMENTS\CGAD\YEAR2\GRAPHICS PROGRAMMING\SEMESTER2\COURSEWORK\GP-COURSEWORK-WIP\DEBUG\GP.PDB
^C:\USERS\ROSS\DOCUMENTS\CODE\GP\GP\DEBUG\AMBIENT_LIGHT.OBJ|C:\USERS\ROSS\DOCUMENTS\CODE\GP\GP\DEBUG\CAMERA.OBJ|C:\USERS\ROSS\DOCUMENTS\CODE\GP\GP\DEBUG\CAMERA_CONTROLLER.OBJ|C:\USERS\ROSS\DOCUMENTS\CODE\GP\GP\DEBUG\CAMERA_CONTROLLER_SECURITY.OBJ|C:\USERS\ROSS\DOCUMENTS\CODE\GP\GP\DEBUG\CAMERA_CONTROLLER_USER.OBJ|C:\USERS\ROSS\DOCUMENTS\CODE\GP\GP\DEBUG\DANCE_FLOOR.OBJ|C:\USERS\ROSS\DOCUMENTS\CODE\GP\GP\DEBUG\DIRECTIONAL_LIGHT.OBJ|C:\USERS\ROSS\DOCUMENTS\CODE\GP\GP\DEBUG\FRIDGE.OBJ|C:\USERS\ROSS\DOCUMENTS\CODE\GP\GP\DEBUG\INPUT.OBJ|C:\USERS\ROSS\DOCUMENTS\CODE\GP\GP\DEBUG\LIGHT.OBJ|C:\USERS\ROSS\DOCUMENTS\CODE\GP\GP\DEBUG\LIGHT_MANAGER.OBJ|C:\USERS\ROSS\DOCUMENTS\CODE\GP\GP\DEBUG\MAIN.OBJ|C:\USERS\ROSS\DOCUMENTS\CODE\GP\GP\DEBUG\MATERIAL.OBJ|C:\USERS\ROSS\DOCUMENTS\CODE\GP\GP\DEBUG\MATRIX44.OBJ|C:\USERS\ROSS\DOCUMENTS\CODE\GP\GP\DEBUG\MIRRORED_SHELVES.OBJ|C:\USERS\ROSS\DOCUMENTS\CODE\GP\GP\DEBUG\MODEL.OBJ|C:\USERS\ROSS\DOCUMENTS\CODE\GP\GP\DEBUG\POINT_LIGHT.OBJ|C:\USERS\ROSS\DOCUMENTS\CODE\GP\GP\DEBUG\SCENE_3D.OBJ|C:\USERS\ROSS\DOCUMENTS\CODE\GP\GP\DEBUG\SHAPE.OBJ|C:\USERS\ROSS\DOCUMENTS\CODE\GP\GP\DEBUG\SHAPE_DATA.OBJ|C:\USERS\ROSS\DOCUMENTS\CODE\GP\GP\DEBUG\SHAPE_FACTORY.OBJ|C:\USERS\ROSS\DOCUMENTS\CODE\GP\GP\DEBUG\SPOT_LIGHT.OBJ|C:\USERS\ROSS\DOCUMENTS\CODE\GP\GP\DEBUG\TABLE.OBJ|C:\USERS\ROSS\DOCUMENTS\CODE\GP\GP\DEBUG\TIMER.OBJ|C:\USERS\ROSS\DOCUMENTS\CODE\GP\GP\DEBUG\TOKEN_STREAM.OBJ|C:\USERS\ROSS\DOCUMENTS\CODE\GP\GP\DEBUG\TRANSFORM.OBJ|C:\USERS\ROSS\DOCUMENTS\CODE\GP\GP\DEBUG\VECTOR3.OBJ|C:\USERS\ROSS\DOCUMENTS\CODE\GP\GP\DEBUG\VECTOR4.OBJ|C:\USERS\ROSS\DOCUMENTS\CODE\GP\GP\DEBUG\WALL_DECORATION.OBJ
C:\USERS\ROSS\DOCUMENTS\CODE\GP\DEBUG\GP.ILK
C:\USERS\ROSS\DOCUMENTS\CODE\GP\DEBUG\GP.EXE
C:\USERS\ROSS\DOCUMENTS\CODE\GP\DEBUG\GP.PDB
